<?xml version="1.0" encoding="UTF-8"?>
<trace:TraceModel xmi:version="2.0" xmlns:xmi="http://www.omg.org/XMI" xmlns:trace="http://www.eclipse.org/gmf/2006/Trace">
  <nodeTraces visualID="7001" queryText="(let _eClass_:ecore::EClass = modelFacet.metaClass.ecoreClass in _eClass_.ePackage.nsURI = 'http://continental-corporation.com/DomainModel/EAST_ADL/Structure/FunctionModeling' and _eClass_.name = 'FunctionalDesignArchitecture') and (let _containmentMF_:ecore::EStructuralFeature = modelFacet.containmentMetaFeature.ecoreFeature in (let _eClass_:ecore::EClass = _containmentMF_.eContainingClass in _eClass_.ePackage.nsURI = 'http://continental-corporation.com/DomainModel/EAST_ADL/Structure/SystemModeling' and _eClass_.name = 'DesignLevel') and _containmentMF_.name = 'functionalDesignArchitecture')">
    <nodeLabelTraces visualID="7002" queryText="true"/>
    <compartmentTraces visualID="7003" queryText="true"/>
  </nodeTraces>
  <nodeTraces visualID="7004" queryText="(let _eClass_:ecore::EClass = modelFacet.metaClass.ecoreClass in _eClass_.ePackage.nsURI = 'http://continental-corporation.com/DomainModel/EAST_ADL/Structure/HardwareModeling' and _eClass_.name = 'HardwareDesignArchitecture') and (let _containmentMF_:ecore::EStructuralFeature = modelFacet.containmentMetaFeature.ecoreFeature in (let _eClass_:ecore::EClass = _containmentMF_.eContainingClass in _eClass_.ePackage.nsURI = 'http://continental-corporation.com/DomainModel/EAST_ADL/Structure/SystemModeling' and _eClass_.name = 'DesignLevel') and _containmentMF_.name = 'hardwareDesignArchitecture')">
    <nodeLabelTraces visualID="7005" queryText="true"/>
    <compartmentTraces visualID="7006" queryText="true"/>
  </nodeTraces>
  <childNodeTraces visualID="7007" queryText="(let _eClass_:ecore::EClass = modelFacet.metaClass.ecoreClass in _eClass_.ePackage.nsURI = 'http://continental-corporation.com/DomainModel/EAST_ADL/Structure/FunctionModeling' and _eClass_.name = 'DesignFunctionPrototype') and (let _containmentMF_:ecore::EStructuralFeature = modelFacet.containmentMetaFeature.ecoreFeature in (let _eClass_:ecore::EClass = _containmentMF_.eContainingClass in _eClass_.ePackage.nsURI = 'http://continental-corporation.com/DomainModel/EAST_ADL/Structure/FunctionModeling' and _eClass_.name = 'FunctionalDesignArchitecture') and _containmentMF_.name = 'prototype')">
    <nodeLabelTraces visualID="7008" queryText="true"/>
    <nodeLabelTraces visualID="7009" queryText="true"/>
  </childNodeTraces>
  <childNodeTraces visualID="7010" queryText="(let _eClass_:ecore::EClass = modelFacet.metaClass.ecoreClass in _eClass_.ePackage.nsURI = 'http://continental-corporation.com/DomainModel/EAST_ADL/Structure/HardwareModeling' and _eClass_.name = 'HardwareComponentPrototype') and (let _containmentMF_:ecore::EStructuralFeature = modelFacet.containmentMetaFeature.ecoreFeature in (let _eClass_:ecore::EClass = _containmentMF_.eContainingClass in _eClass_.ePackage.nsURI = 'http://continental-corporation.com/DomainModel/EAST_ADL/Structure/HardwareModeling' and _eClass_.name = 'HardwareDesignArchitecture') and _containmentMF_.name = 'prototype')">
    <nodeLabelTraces visualID="7011" queryText="true"/>
    <nodeLabelTraces visualID="7012" queryText="true"/>
  </childNodeTraces>
  <childNodeTraces visualID="7017" queryText="(let _eClass_:ecore::EClass = modelFacet.metaClass.ecoreClass in _eClass_.ePackage.nsURI = 'http://continental-corporation.com/DomainModel/EAST_ADL/Structure/FunctionModeling' and _eClass_.name = 'FunctionPortProxy') and (let _containmentMF_:ecore::EStructuralFeature = modelFacet.containmentMetaFeature.ecoreFeature in (let _eClass_:ecore::EClass = _containmentMF_.eContainingClass in _eClass_.ePackage.nsURI = 'http://continental-corporation.com/DomainModel/EAST_ADL/Structure/FunctionModeling' and _eClass_.name = 'FunctionPrototype') and _containmentMF_.name = 'derivedPorts')">
    <nodeLabelTraces visualID="7018" queryText="true"/>
  </childNodeTraces>
  <childNodeTraces visualID="8001" queryText="(let _eClass_:ecore::EClass = modelFacet.metaClass.ecoreClass in _eClass_.ePackage.nsURI = 'http://continental-corporation.com/DomainModel/EAST_ADL/Structure/HardwareModeling' and _eClass_.name = 'HardwarePinProxy') and (let _containmentMF_:ecore::EStructuralFeature = modelFacet.containmentMetaFeature.ecoreFeature in (let _eClass_:ecore::EClass = _containmentMF_.eContainingClass in _eClass_.ePackage.nsURI = 'http://continental-corporation.com/DomainModel/EAST_ADL/Structure/HardwareModeling' and _eClass_.name = 'HardwareComponentPrototype') and _containmentMF_.name = 'derivedPin')">
    <nodeLabelTraces visualID="8002" queryText="true"/>
  </childNodeTraces>
  <linkTraces visualID="7013" queryText="modelFacet.oclIsKindOf(gmfgen::TypeLinkModelFacet) and (let _eClass_:ecore::EClass = modelFacet.oclAsType(gmfgen::TypeLinkModelFacet).metaClass.ecoreClass in _eClass_.ePackage.nsURI = 'http://continental-corporation.com/DomainModel/EAST_ADL/Infrastructure/Elements' and _eClass_.name = 'Realization')">
    <linkLabelTraces visualID="7014" queryText="true"/>
  </linkTraces>
  <linkTraces visualID="7015" queryText="modelFacet.oclIsKindOf(gmfgen::TypeLinkModelFacet) and (let _eClass_:ecore::EClass = modelFacet.oclAsType(gmfgen::TypeLinkModelFacet).metaClass.ecoreClass in _eClass_.ePackage.nsURI = 'http://continental-corporation.com/DomainModel/EAST_ADL/Infrastructure/Elements' and _eClass_.name = 'MultiLevelReference')">
    <linkLabelTraces visualID="7016" queryText="true"/>
  </linkTraces>
</trace:TraceModel>
