<?xml version="1.0" encoding="UTF-8"?>
<trace:TraceModel xmi:version="2.0" xmlns:xmi="http://www.omg.org/XMI" xmlns:trace="http://www.eclipse.org/gmf/2006/Trace">
  <nodeTraces visualID="5001" queryText="(let _eClass_:ecore::EClass = modelFacet.metaClass.ecoreClass in _eClass_.ePackage.nsURI = 'http://continental-corporation.com/DomainModel/EAST_ADL/Infrastructure/Elements' and _eClass_.name = 'AnalysisTypePackage') and (let _containmentMF_:ecore::EStructuralFeature = modelFacet.containmentMetaFeature.ecoreFeature in (let _eClass_:ecore::EClass = _containmentMF_.eContainingClass in _eClass_.ePackage.nsURI = 'http://continental-corporation.com/DomainModel/EAST_ADL/Infrastructure/Elements' and _eClass_.name = 'EAPackage') and _containmentMF_.name = 'subPackage')">
    <nodeLabelTraces visualID="5002" queryText="true"/>
  </nodeTraces>
  <nodeTraces visualID="5003" queryText="(let _eClass_:ecore::EClass = modelFacet.metaClass.ecoreClass in _eClass_.ePackage.nsURI = 'http://continental-corporation.com/DomainModel/EAST_ADL/Structure/FunctionModeling' and _eClass_.name = 'AnalysisFunctionType') and (let _containmentMF_:ecore::EStructuralFeature = modelFacet.containmentMetaFeature.ecoreFeature in (let _eClass_:ecore::EClass = _containmentMF_.eContainingClass in _eClass_.ePackage.nsURI = 'http://continental-corporation.com/DomainModel/EAST_ADL/Infrastructure/Elements' and _eClass_.name = 'EAPackage') and _containmentMF_.name = 'element')">
    <nodeLabelTraces visualID="5004" queryText="true"/>
  </nodeTraces>
  <nodeTraces visualID="5005" queryText="(let _eClass_:ecore::EClass = modelFacet.metaClass.ecoreClass in _eClass_.ePackage.nsURI = 'http://continental-corporation.com/DomainModel/EAST_ADL/Structure/FunctionModeling' and _eClass_.name = 'FunctionalDevice') and (let _containmentMF_:ecore::EStructuralFeature = modelFacet.containmentMetaFeature.ecoreFeature in (let _eClass_:ecore::EClass = _containmentMF_.eContainingClass in _eClass_.ePackage.nsURI = 'http://continental-corporation.com/DomainModel/EAST_ADL/Infrastructure/Elements' and _eClass_.name = 'EAPackage') and _containmentMF_.name = 'element')">
    <nodeLabelTraces visualID="5006" queryText="true"/>
  </nodeTraces>
  <childNodeTraces visualID="5007" queryText="(let _eClass_:ecore::EClass = modelFacet.metaClass.ecoreClass in _eClass_.ePackage.nsURI = 'http://continental-corporation.com/DomainModel/EAST_ADL/Structure/FunctionModeling' and _eClass_.name = 'FunctionInFlowPort') and (let _containmentMF_:ecore::EStructuralFeature = modelFacet.containmentMetaFeature.ecoreFeature in (let _eClass_:ecore::EClass = _containmentMF_.eContainingClass in _eClass_.ePackage.nsURI = 'http://continental-corporation.com/DomainModel/EAST_ADL/Structure/FunctionModeling' and _eClass_.name = 'FunctionType') and _containmentMF_.name = 'port')">
    <nodeLabelTraces visualID="5008" queryText="true"/>
  </childNodeTraces>
  <childNodeTraces visualID="5009" queryText="(let _eClass_:ecore::EClass = modelFacet.metaClass.ecoreClass in _eClass_.ePackage.nsURI = 'http://continental-corporation.com/DomainModel/EAST_ADL/Structure/FunctionModeling' and _eClass_.name = 'FunctionOutFlowPort') and (let _containmentMF_:ecore::EStructuralFeature = modelFacet.containmentMetaFeature.ecoreFeature in (let _eClass_:ecore::EClass = _containmentMF_.eContainingClass in _eClass_.ePackage.nsURI = 'http://continental-corporation.com/DomainModel/EAST_ADL/Structure/FunctionModeling' and _eClass_.name = 'FunctionType') and _containmentMF_.name = 'port')">
    <nodeLabelTraces visualID="5010" queryText="true"/>
  </childNodeTraces>
  <childNodeTraces visualID="5011" queryText="(let _eClass_:ecore::EClass = modelFacet.metaClass.ecoreClass in _eClass_.ePackage.nsURI = 'http://continental-corporation.com/DomainModel/EAST_ADL/Structure/FunctionModeling' and _eClass_.name = 'FunctionInOutFlowPort') and (let _containmentMF_:ecore::EStructuralFeature = modelFacet.containmentMetaFeature.ecoreFeature in (let _eClass_:ecore::EClass = _containmentMF_.eContainingClass in _eClass_.ePackage.nsURI = 'http://continental-corporation.com/DomainModel/EAST_ADL/Structure/FunctionModeling' and _eClass_.name = 'FunctionType') and _containmentMF_.name = 'port')">
    <nodeLabelTraces visualID="5012" queryText="true"/>
  </childNodeTraces>
  <childNodeTraces visualID="5013" queryText="(let _eClass_:ecore::EClass = modelFacet.metaClass.ecoreClass in _eClass_.ePackage.nsURI = 'http://continental-corporation.com/DomainModel/EAST_ADL/Structure/FunctionModeling' and _eClass_.name = 'FunctionServerPort') and (let _containmentMF_:ecore::EStructuralFeature = modelFacet.containmentMetaFeature.ecoreFeature in (let _eClass_:ecore::EClass = _containmentMF_.eContainingClass in _eClass_.ePackage.nsURI = 'http://continental-corporation.com/DomainModel/EAST_ADL/Structure/FunctionModeling' and _eClass_.name = 'FunctionType') and _containmentMF_.name = 'port')">
    <nodeLabelTraces visualID="5014" queryText="true"/>
  </childNodeTraces>
  <childNodeTraces visualID="5015" queryText="(let _eClass_:ecore::EClass = modelFacet.metaClass.ecoreClass in _eClass_.ePackage.nsURI = 'http://continental-corporation.com/DomainModel/EAST_ADL/Structure/FunctionModeling' and _eClass_.name = 'FunctionClientPort') and (let _containmentMF_:ecore::EStructuralFeature = modelFacet.containmentMetaFeature.ecoreFeature in (let _eClass_:ecore::EClass = _containmentMF_.eContainingClass in _eClass_.ePackage.nsURI = 'http://continental-corporation.com/DomainModel/EAST_ADL/Structure/FunctionModeling' and _eClass_.name = 'FunctionType') and _containmentMF_.name = 'port')">
    <nodeLabelTraces visualID="5016" queryText="true"/>
  </childNodeTraces>
  <linkTraces visualID="5017" queryText="modelFacet.oclIsKindOf(gmfgen::TypeLinkModelFacet) and (let _eClass_:ecore::EClass = modelFacet.oclAsType(gmfgen::TypeLinkModelFacet).metaClass.ecoreClass in _eClass_.ePackage.nsURI = 'http://continental-corporation.com/DomainModel/EAST_ADL/Infrastructure/Elements' and _eClass_.name = 'Realization')">
    <linkLabelTraces visualID="5018" queryText="true"/>
  </linkTraces>
  <linkTraces visualID="5019" queryText="modelFacet.oclIsKindOf(gmfgen::TypeLinkModelFacet) and (let _eClass_:ecore::EClass = modelFacet.oclAsType(gmfgen::TypeLinkModelFacet).metaClass.ecoreClass in _eClass_.ePackage.nsURI = 'http://continental-corporation.com/DomainModel/EAST_ADL/Infrastructure/Elements' and _eClass_.name = 'MultiLevelReference')">
    <linkLabelTraces visualID="5020" queryText="true"/>
  </linkTraces>
</trace:TraceModel>
