<?xml version="1.0" encoding="UTF-8"?>
<trace:TraceModel xmi:version="2.0" xmlns:xmi="http://www.omg.org/XMI" xmlns:trace="http://www.eclipse.org/gmf/2006/Trace">
  <nodeTraces visualID="3001" queryText="(let _eClass_:ecore::EClass = modelFacet.metaClass.ecoreClass in _eClass_.ePackage.nsURI = 'http://continental-corporation.com/DomainModel/EAST_ADL/Structure/FunctionModeling' and _eClass_.name = 'AnalysisFunctionPrototype') and (let _containmentMF_:ecore::EStructuralFeature = modelFacet.containmentMetaFeature.ecoreFeature in (let _eClass_:ecore::EClass = _containmentMF_.eContainingClass in _eClass_.ePackage.nsURI = 'http://continental-corporation.com/DomainModel/EAST_ADL/Structure/FunctionModeling' and _eClass_.name = 'AnalysisFunctionType') and _containmentMF_.name = 'part')">
    <nodeLabelTraces visualID="3002" queryText="true"/>
    <nodeLabelTraces visualID="3003" queryText="true"/>
  </nodeTraces>
  <nodeTraces visualID="3004" queryText="(let _eClass_:ecore::EClass = modelFacet.metaClass.ecoreClass in _eClass_.ePackage.nsURI = 'http://continental-corporation.com/DomainModel/EAST_ADL/Structure/FunctionModeling' and _eClass_.name = 'FunctionInFlowPort') and (let _containmentMF_:ecore::EStructuralFeature = modelFacet.containmentMetaFeature.ecoreFeature in (let _eClass_:ecore::EClass = _containmentMF_.eContainingClass in _eClass_.ePackage.nsURI = 'http://continental-corporation.com/DomainModel/EAST_ADL/Structure/FunctionModeling' and _eClass_.name = 'FunctionType') and _containmentMF_.name = 'port')">
    <nodeLabelTraces visualID="3005" queryText="true"/>
  </nodeTraces>
  <nodeTraces visualID="3006" queryText="(let _eClass_:ecore::EClass = modelFacet.metaClass.ecoreClass in _eClass_.ePackage.nsURI = 'http://continental-corporation.com/DomainModel/EAST_ADL/Structure/FunctionModeling' and _eClass_.name = 'FunctionInOutFlowPort') and (let _containmentMF_:ecore::EStructuralFeature = modelFacet.containmentMetaFeature.ecoreFeature in (let _eClass_:ecore::EClass = _containmentMF_.eContainingClass in _eClass_.ePackage.nsURI = 'http://continental-corporation.com/DomainModel/EAST_ADL/Structure/FunctionModeling' and _eClass_.name = 'FunctionType') and _containmentMF_.name = 'port')">
    <nodeLabelTraces visualID="3007" queryText="true"/>
  </nodeTraces>
  <nodeTraces visualID="3008" queryText="(let _eClass_:ecore::EClass = modelFacet.metaClass.ecoreClass in _eClass_.ePackage.nsURI = 'http://continental-corporation.com/DomainModel/EAST_ADL/Structure/FunctionModeling' and _eClass_.name = 'FunctionServerPort') and (let _containmentMF_:ecore::EStructuralFeature = modelFacet.containmentMetaFeature.ecoreFeature in (let _eClass_:ecore::EClass = _containmentMF_.eContainingClass in _eClass_.ePackage.nsURI = 'http://continental-corporation.com/DomainModel/EAST_ADL/Structure/FunctionModeling' and _eClass_.name = 'FunctionType') and _containmentMF_.name = 'port')">
    <nodeLabelTraces visualID="3009" queryText="true"/>
  </nodeTraces>
  <nodeTraces visualID="3010" queryText="(let _eClass_:ecore::EClass = modelFacet.metaClass.ecoreClass in _eClass_.ePackage.nsURI = 'http://continental-corporation.com/DomainModel/EAST_ADL/Structure/FunctionModeling' and _eClass_.name = 'FunctionClientPort') and (let _containmentMF_:ecore::EStructuralFeature = modelFacet.containmentMetaFeature.ecoreFeature in (let _eClass_:ecore::EClass = _containmentMF_.eContainingClass in _eClass_.ePackage.nsURI = 'http://continental-corporation.com/DomainModel/EAST_ADL/Structure/FunctionModeling' and _eClass_.name = 'FunctionType') and _containmentMF_.name = 'port')">
    <nodeLabelTraces visualID="3011" queryText="true"/>
  </nodeTraces>
  <nodeTraces visualID="3012" queryText="(let _eClass_:ecore::EClass = modelFacet.metaClass.ecoreClass in _eClass_.ePackage.nsURI = 'http://continental-corporation.com/DomainModel/EAST_ADL/Structure/FunctionModeling' and _eClass_.name = 'FunctionOutFlowPort') and (let _containmentMF_:ecore::EStructuralFeature = modelFacet.containmentMetaFeature.ecoreFeature in (let _eClass_:ecore::EClass = _containmentMF_.eContainingClass in _eClass_.ePackage.nsURI = 'http://continental-corporation.com/DomainModel/EAST_ADL/Structure/FunctionModeling' and _eClass_.name = 'FunctionType') and _containmentMF_.name = 'port')">
    <nodeLabelTraces visualID="3013" queryText="true"/>
  </nodeTraces>
  <nodeTraces visualID="3014" queryText="(let _eClass_:ecore::EClass = modelFacet.metaClass.ecoreClass in _eClass_.ePackage.nsURI = 'http://continental-corporation.com/DomainModel/EAST_ADL/Structure/FunctionModeling' and _eClass_.name = 'FunctionConnector') and (let _containmentMF_:ecore::EStructuralFeature = modelFacet.containmentMetaFeature.ecoreFeature in (let _eClass_:ecore::EClass = _containmentMF_.eContainingClass in _eClass_.ePackage.nsURI = 'http://continental-corporation.com/DomainModel/EAST_ADL/Structure/FunctionModeling' and _eClass_.name = 'FunctionType') and _containmentMF_.name = 'connector')">
    <nodeLabelTraces visualID="3015" queryText="true"/>
  </nodeTraces>
  <childNodeTraces visualID="3016" queryText="(let _eClass_:ecore::EClass = modelFacet.metaClass.ecoreClass in _eClass_.ePackage.nsURI = 'http://continental-corporation.com/DomainModel/EAST_ADL/Structure/FunctionModeling' and _eClass_.name = 'FunctionPortProxy') and (let _containmentMF_:ecore::EStructuralFeature = modelFacet.containmentMetaFeature.ecoreFeature in (let _eClass_:ecore::EClass = _containmentMF_.eContainingClass in _eClass_.ePackage.nsURI = 'http://continental-corporation.com/DomainModel/EAST_ADL/Structure/FunctionModeling' and _eClass_.name = 'FunctionPrototype') and _containmentMF_.name = 'derivedPorts')">
    <nodeLabelTraces visualID="3017" queryText="true"/>
  </childNodeTraces>
  <linkTraces visualID="3018" queryText="modelFacet.oclIsKindOf(gmfgen::TypeLinkModelFacet) and (let _eClass_:ecore::EClass = modelFacet.oclAsType(gmfgen::TypeLinkModelFacet).metaClass.ecoreClass in _eClass_.ePackage.nsURI = 'http://continental-corporation.com/DomainModel/EAST_ADL/Infrastructure/Elements' and _eClass_.name = 'Realization')"/>
  <linkTraces visualID="3019" queryText="modelFacet.oclIsKindOf(gmfgen::TypeLinkModelFacet) and (let _eClass_:ecore::EClass = modelFacet.oclAsType(gmfgen::TypeLinkModelFacet).metaClass.ecoreClass in _eClass_.ePackage.nsURI = 'http://continental-corporation.com/DomainModel/EAST_ADL/Infrastructure/Elements' and _eClass_.name = 'MultiLevelReference')"/>
</trace:TraceModel>
