<?xml version="1.0" encoding="UTF-8"?>
<trace:TraceModel xmi:version="2.0" xmlns:xmi="http://www.omg.org/XMI" xmlns:trace="http://www.eclipse.org/gmf/2006/Trace">
  <nodeTraces visualID="2001" queryText="(let _eClass_:ecore::EClass = modelFacet.metaClass.ecoreClass in _eClass_.ePackage.nsURI = 'http://continental-corporation.com/DomainModel/EAST_ADL/Infrastructure/Elements' and _eClass_.name = 'EAPackage') and (let _containmentMF_:ecore::EStructuralFeature = modelFacet.containmentMetaFeature.ecoreFeature in (let _eClass_:ecore::EClass = _containmentMF_.eContainingClass in _eClass_.ePackage.nsURI = 'http://continental-corporation.com/DomainModel/EAST_ADL/Infrastructure/Elements' and _eClass_.name = 'EAPackage') and _containmentMF_.name = 'subPackage')">
    <nodeLabelTraces visualID="2002" queryText="true"/>
  </nodeTraces>
  <nodeTraces visualID="2003" queryText="(let _eClass_:ecore::EClass = modelFacet.metaClass.ecoreClass in _eClass_.ePackage.nsURI = 'http://continental-corporation.com/DomainModel/EAST_ADL/Infrastructure/Elements' and _eClass_.name = 'AnalysisTypePackage') and (let _containmentMF_:ecore::EStructuralFeature = modelFacet.containmentMetaFeature.ecoreFeature in (let _eClass_:ecore::EClass = _containmentMF_.eContainingClass in _eClass_.ePackage.nsURI = 'http://continental-corporation.com/DomainModel/EAST_ADL/Infrastructure/Elements' and _eClass_.name = 'EAPackage') and _containmentMF_.name = 'subPackage')">
    <nodeLabelTraces visualID="2004" queryText="true"/>
  </nodeTraces>
  <nodeTraces visualID="2005" queryText="(let _eClass_:ecore::EClass = modelFacet.metaClass.ecoreClass in _eClass_.ePackage.nsURI = 'http://continental-corporation.com/DomainModel/EAST_ADL/Infrastructure/Elements' and _eClass_.name = 'DesignTypePackage') and (let _containmentMF_:ecore::EStructuralFeature = modelFacet.containmentMetaFeature.ecoreFeature in (let _eClass_:ecore::EClass = _containmentMF_.eContainingClass in _eClass_.ePackage.nsURI = 'http://continental-corporation.com/DomainModel/EAST_ADL/Infrastructure/Elements' and _eClass_.name = 'EAPackage') and _containmentMF_.name = 'subPackage')">
    <nodeLabelTraces visualID="2006" queryText="true"/>
  </nodeTraces>
  <nodeTraces visualID="2007" queryText="(let _eClass_:ecore::EClass = modelFacet.metaClass.ecoreClass in _eClass_.ePackage.nsURI = 'http://continental-corporation.com/DomainModel/EAST_ADL/Infrastructure/Elements' and _eClass_.name = 'HardwareComponentTypePackage') and (let _containmentMF_:ecore::EStructuralFeature = modelFacet.containmentMetaFeature.ecoreFeature in (let _eClass_:ecore::EClass = _containmentMF_.eContainingClass in _eClass_.ePackage.nsURI = 'http://continental-corporation.com/DomainModel/EAST_ADL/Infrastructure/Elements' and _eClass_.name = 'EAPackage') and _containmentMF_.name = 'subPackage')">
    <nodeLabelTraces visualID="2008" queryText="true"/>
  </nodeTraces>
  <nodeTraces visualID="2009" queryText="(let _eClass_:ecore::EClass = modelFacet.metaClass.ecoreClass in _eClass_.ePackage.nsURI = 'http://continental-corporation.com/DomainModel/EAST_ADL/Structure/SystemModeling' and _eClass_.name = 'SystemModel') and (let _containmentMF_:ecore::EStructuralFeature = modelFacet.containmentMetaFeature.ecoreFeature in (let _eClass_:ecore::EClass = _containmentMF_.eContainingClass in _eClass_.ePackage.nsURI = 'http://continental-corporation.com/DomainModel/EAST_ADL/Infrastructure/Elements' and _eClass_.name = 'EAPackage') and _containmentMF_.name = 'element')">
    <nodeLabelTraces visualID="2010" queryText="true"/>
    <compartmentTraces visualID="2011" queryText="true"/>
  </nodeTraces>
  <nodeTraces visualID="2012" queryText="(let _eClass_:ecore::EClass = modelFacet.metaClass.ecoreClass in _eClass_.ePackage.nsURI = 'http://continental-corporation.com/DomainModel/EAST_ADL/Environment' and _eClass_.name = 'Environment') and (let _containmentMF_:ecore::EStructuralFeature = modelFacet.containmentMetaFeature.ecoreFeature in (let _eClass_:ecore::EClass = _containmentMF_.eContainingClass in _eClass_.ePackage.nsURI = 'http://continental-corporation.com/DomainModel/EAST_ADL/Infrastructure/Elements' and _eClass_.name = 'EAPackage') and _containmentMF_.name = 'element')">
    <nodeLabelTraces visualID="2013" queryText="true"/>
  </nodeTraces>
  <childNodeTraces visualID="2014" queryText="(let _eClass_:ecore::EClass = modelFacet.metaClass.ecoreClass in _eClass_.ePackage.nsURI = 'http://continental-corporation.com/DomainModel/EAST_ADL/Structure/SystemModeling' and _eClass_.name = 'VehicleLevel') and (let _containmentMF_:ecore::EStructuralFeature = modelFacet.containmentMetaFeature.ecoreFeature in (let _eClass_:ecore::EClass = _containmentMF_.eContainingClass in _eClass_.ePackage.nsURI = 'http://continental-corporation.com/DomainModel/EAST_ADL/Structure/SystemModeling' and _eClass_.name = 'SystemModel') and _containmentMF_.name = 'vehicleLevel')">
    <nodeLabelTraces visualID="2015" queryText="true"/>
  </childNodeTraces>
  <childNodeTraces visualID="2016" queryText="(let _eClass_:ecore::EClass = modelFacet.metaClass.ecoreClass in _eClass_.ePackage.nsURI = 'http://continental-corporation.com/DomainModel/EAST_ADL/Structure/SystemModeling' and _eClass_.name = 'AnalysisLevel') and (let _containmentMF_:ecore::EStructuralFeature = modelFacet.containmentMetaFeature.ecoreFeature in (let _eClass_:ecore::EClass = _containmentMF_.eContainingClass in _eClass_.ePackage.nsURI = 'http://continental-corporation.com/DomainModel/EAST_ADL/Structure/SystemModeling' and _eClass_.name = 'SystemModel') and _containmentMF_.name = 'analysisLevel')">
    <nodeLabelTraces visualID="2017" queryText="true"/>
  </childNodeTraces>
  <childNodeTraces visualID="2018" queryText="(let _eClass_:ecore::EClass = modelFacet.metaClass.ecoreClass in _eClass_.ePackage.nsURI = 'http://continental-corporation.com/DomainModel/EAST_ADL/Structure/SystemModeling' and _eClass_.name = 'DesignLevel') and (let _containmentMF_:ecore::EStructuralFeature = modelFacet.containmentMetaFeature.ecoreFeature in (let _eClass_:ecore::EClass = _containmentMF_.eContainingClass in _eClass_.ePackage.nsURI = 'http://continental-corporation.com/DomainModel/EAST_ADL/Structure/SystemModeling' and _eClass_.name = 'SystemModel') and _containmentMF_.name = 'designLevel')">
    <nodeLabelTraces visualID="2019" queryText="true"/>
  </childNodeTraces>
  <childNodeTraces visualID="2020" queryText="(let _eClass_:ecore::EClass = modelFacet.metaClass.ecoreClass in _eClass_.ePackage.nsURI = 'http://continental-corporation.com/DomainModel/EAST_ADL/Structure/SystemModeling' and _eClass_.name = 'ImplementationLevel') and (let _containmentMF_:ecore::EStructuralFeature = modelFacet.containmentMetaFeature.ecoreFeature in (let _eClass_:ecore::EClass = _containmentMF_.eContainingClass in _eClass_.ePackage.nsURI = 'http://continental-corporation.com/DomainModel/EAST_ADL/Structure/SystemModeling' and _eClass_.name = 'SystemModel') and _containmentMF_.name = 'implementationLevel')">
    <nodeLabelTraces visualID="2021" queryText="true"/>
  </childNodeTraces>
  <linkTraces visualID="2022" queryText="modelFacet.oclIsKindOf(gmfgen::TypeLinkModelFacet) and (let _eClass_:ecore::EClass = modelFacet.oclAsType(gmfgen::TypeLinkModelFacet).metaClass.ecoreClass in _eClass_.ePackage.nsURI = 'http://continental-corporation.com/DomainModel/EAST_ADL/Infrastructure/Elements' and _eClass_.name = 'Realization')">
    <linkLabelTraces visualID="2023" queryText="true"/>
  </linkTraces>
  <linkTraces visualID="2024" queryText="modelFacet.oclIsKindOf(gmfgen::TypeLinkModelFacet) and (let _eClass_:ecore::EClass = modelFacet.oclAsType(gmfgen::TypeLinkModelFacet).metaClass.ecoreClass in _eClass_.ePackage.nsURI = 'http://continental-corporation.com/DomainModel/EAST_ADL/Infrastructure/Elements' and _eClass_.name = 'MultiLevelReference')">
    <linkLabelTraces visualID="2025" queryText="true"/>
  </linkTraces>
</trace:TraceModel>
